UARTBaseStation/simulation/qsim/UARTBaseStation.msim.vcd
$comment
	File created using the following command:
		vcd file UARTBaseStation.msim.vcd -direction
$end
$date
	Wed Aug 30 20:24:53 2017
$end
$version
	ModelSim Version 10.1d
$end
$timescale
	1ps
$end
$scope module FullBaseStation_vlg_vec_tst $end
$var reg 1 ! clk $end
$var reg 1 " PB0 $end
$var reg 1 # PB1 $end
$var reg 1 $ rx $end
$var wire 1 % ledsegment [6] $end
$var wire 1 & ledsegment [5] $end
$var wire 1 ' ledsegment [4] $end
$var wire 1 ( ledsegment [3] $end
$var wire 1 ) ledsegment [2] $end
$var wire 1 * ledsegment [1] $end
$var wire 1 + ledsegment [0] $end
$var wire 1 , ledsel [3] $end
$var wire 1 - ledsel [2] $end
$var wire 1 . ledsel [1] $end
$var wire 1 / ledsel [0] $end
$scope module i1 $end
$var wire 1 0 gnd $end
$var wire 1 1 vcc $end
$var wire 1 2 unknown $end
$var tri1 1 3 devclrn $end
$var tri1 1 4 devpor $end
$var tri1 1 5 devoe $end
$var wire 1 6 inst8|CS~regout $end
$var wire 1 7 inst8|CS1~regout $end
$var wire 1 8 clk~combout $end
$var wire 1 9 PB0~combout $end
$var wire 1 : inst8|NS~regout $end
$var wire 1 ; inst8|polling_counter[0]~1 $end
$var wire 1 < inst8|polling_counter[1]~3 $end
$var wire 1 = inst8|polling_counter[1]~3COUT1_91 $end
$var wire 1 > inst8|polling_counter[2]~5 $end
$var wire 1 ? inst8|polling_counter[2]~5COUT1_93 $end
$var wire 1 @ inst8|polling_counter[3]~7 $end
$var wire 1 A inst8|polling_counter[3]~7COUT1_95 $end
$var wire 1 B inst8|polling_counter[4]~13 $end
$var wire 1 C inst8|polling_counter[4]~13COUT1_97 $end
$var wire 1 D inst8|polling_counter[5]~9 $end
$var wire 1 E inst8|polling_counter[6]~15 $end
$var wire 1 F inst8|polling_counter[6]~15COUT1_99 $end
$var wire 1 G inst8|polling_counter[7]~11 $end
$var wire 1 H inst8|polling_counter[7]~11COUT1_101 $end
$var wire 1 I inst8|polling_counter[8]~21 $end
$var wire 1 J inst8|polling_counter[8]~21COUT1_103 $end
$var wire 1 K inst8|polling_counter[9]~17 $end
$var wire 1 L inst8|polling_counter[9]~17COUT1_105 $end
$var wire 1 M inst8|polling_counter[10]~19 $end
$var wire 1 N inst8|polling_counter[11]~23 $end
$var wire 1 O inst8|polling_counter[11]~23COUT1_107 $end
$var wire 1 P inst8|polling_counter[12]~27 $end
$var wire 1 Q inst8|polling_counter[12]~27COUT1_109 $end
$var wire 1 R inst8|polling_counter[13]~29 $end
$var wire 1 S inst8|polling_counter[13]~29COUT1_111 $end
$var wire 1 T inst8|polling_counter[14]~31 $end
$var wire 1 U inst8|polling_counter[14]~31COUT1_113 $end
$var wire 1 V inst8|polling_counter[15]~25 $end
$var wire 1 W inst8|polling_counter[16]~33 $end
$var wire 1 X inst8|polling_counter[16]~33COUT1_115 $end
$var wire 1 Y inst8|polling_counter[17]~35 $end
$var wire 1 Z inst8|polling_counter[17]~35COUT1_117 $end
$var wire 1 [ inst8|polling_counter[18]~45 $end
$var wire 1 \ inst8|polling_counter[18]~45COUT1_119 $end
$var wire 1 ] inst8|polling_counter[19]~47 $end
$var wire 1 ^ inst8|polling_counter[19]~47COUT1_121 $end
$var wire 1 _ inst8|polling_counter[20]~37 $end
$var wire 1 ` inst8|polling_counter[21]~39 $end
$var wire 1 a inst8|polling_counter[21]~39COUT1_123 $end
$var wire 1 b inst8|polling_counter[22]~41 $end
$var wire 1 c inst8|polling_counter[22]~41COUT1_125 $end
$var wire 1 d inst8|polling_counter[23]~43 $end
$var wire 1 e inst8|polling_counter[23]~43COUT1_127 $end
$var wire 1 f inst8|polling_counter[24]~49 $end
$var wire 1 g inst8|polling_counter[24]~49COUT1_129 $end
$var wire 1 h inst8|polling_counter[25]~51 $end
$var wire 1 i inst8|polling_counter[26]~53 $end
$var wire 1 j inst8|polling_counter[26]~53COUT1_131 $end
$var wire 1 k inst8|polling_counter[27]~55 $end
$var wire 1 l inst8|polling_counter[27]~55COUT1_133 $end
$var wire 1 m inst8|polling_counter[28]~57 $end
$var wire 1 n inst8|polling_counter[28]~57COUT1_135 $end
$var wire 1 o inst8|polling_counter[29]~59 $end
$var wire 1 p inst8|polling_counter[29]~59COUT1_137 $end
$var wire 1 q inst8|polling_counter[30]~61 $end
$var wire 1 r inst8|Equal0~9_combout $end
$var wire 1 s inst8|Equal0~5_combout $end
$var wire 1 t inst8|Equal0~6_combout $end
$var wire 1 u inst8|Equal0~7_combout $end
$var wire 1 v inst8|Equal0~3_combout $end
$var wire 1 w inst8|Equal0~0_combout $end
$var wire 1 x inst8|Equal0~2_combout $end
$var wire 1 y inst8|Equal0~1_combout $end
$var wire 1 z inst8|Equal0~4_combout $end
$var wire 1 { inst8|Equal0~10 $end
$var wire 1 | inst8|polling_counter[14]~64 $end
$var wire 1 } inst8|Equal0~8_combout $end
$var wire 1 ~ inst8|change_output~regout $end
$var wire 1 !! PB1~combout $end
$var wire 1 "! inst8|NS1~regout $end
$var wire 1 #! inst8|style_counter[0]~1 $end
$var wire 1 $! inst8|style_counter[1]~3 $end
$var wire 1 %! inst8|style_counter[1]~3COUT1_91 $end
$var wire 1 &! inst8|style_counter[2]~5 $end
$var wire 1 '! inst8|style_counter[2]~5COUT1_93 $end
$var wire 1 (! inst8|style_counter[3]~7 $end
$var wire 1 )! inst8|style_counter[3]~7COUT1_95 $end
$var wire 1 *! inst8|style_counter[4]~13 $end
$var wire 1 +! inst8|style_counter[4]~13COUT1_97 $end
$var wire 1 ,! inst8|style_counter[5]~9 $end
$var wire 1 -! inst8|style_counter[6]~15 $end
$var wire 1 .! inst8|style_counter[6]~15COUT1_99 $end
$var wire 1 /! inst8|style_counter[7]~11 $end
$var wire 1 0! inst8|style_counter[7]~11COUT1_101 $end
$var wire 1 1! inst8|style_counter[8]~21 $end
$var wire 1 2! inst8|style_counter[8]~21COUT1_103 $end
$var wire 1 3! inst8|style_counter[9]~17 $end
$var wire 1 4! inst8|style_counter[9]~17COUT1_105 $end
$var wire 1 5! inst8|style_counter[10]~19 $end
$var wire 1 6! inst8|style_counter[11]~23 $end
$var wire 1 7! inst8|style_counter[11]~23COUT1_107 $end
$var wire 1 8! inst8|style_counter[12]~27 $end
$var wire 1 9! inst8|style_counter[12]~27COUT1_109 $end
$var wire 1 :! inst8|style_counter[13]~29 $end
$var wire 1 ;! inst8|style_counter[13]~29COUT1_111 $end
$var wire 1 <! inst8|style_counter[14]~31 $end
$var wire 1 =! inst8|style_counter[14]~31COUT1_113 $end
$var wire 1 >! inst8|style_counter[15]~25 $end
$var wire 1 ?! inst8|style_counter[16]~33 $end
$var wire 1 @! inst8|style_counter[16]~33COUT1_115 $end
$var wire 1 A! inst8|style_counter[17]~35 $end
$var wire 1 B! inst8|style_counter[17]~35COUT1_117 $end
$var wire 1 C! inst8|style_counter[18]~45 $end
$var wire 1 D! inst8|style_counter[18]~45COUT1_119 $end
$var wire 1 E! inst8|style_counter[19]~47 $end
$var wire 1 F! inst8|style_counter[19]~47COUT1_121 $end
$var wire 1 G! inst8|style_counter[20]~37 $end
$var wire 1 H! inst8|style_counter[21]~39 $end
$var wire 1 I! inst8|style_counter[21]~39COUT1_123 $end
$var wire 1 J! inst8|style_counter[22]~41 $end
$var wire 1 K! inst8|style_counter[22]~41COUT1_125 $end
$var wire 1 L! inst8|style_counter[23]~43 $end
$var wire 1 M! inst8|style_counter[23]~43COUT1_127 $end
$var wire 1 N! inst8|style_counter[24]~49 $end
$var wire 1 O! inst8|style_counter[24]~49COUT1_129 $end
$var wire 1 P! inst8|style_counter[25]~51 $end
$var wire 1 Q! inst8|style_counter[26]~53 $end
$var wire 1 R! inst8|style_counter[26]~53COUT1_131 $end
$var wire 1 S! inst8|style_counter[27]~55 $end
$var wire 1 T! inst8|style_counter[27]~55COUT1_133 $end
$var wire 1 U! inst8|style_counter[28]~57 $end
$var wire 1 V! inst8|style_counter[28]~57COUT1_135 $end
$var wire 1 W! inst8|style_counter[29]~59 $end
$var wire 1 X! inst8|style_counter[29]~59COUT1_137 $end
$var wire 1 Y! inst8|style_counter[30]~61 $end
$var wire 1 Z! inst8|Equal1~9_combout $end
$var wire 1 [! inst8|Equal1~6_combout $end
$var wire 1 \! inst8|Equal1~5_combout $end
$var wire 1 ]! inst8|Equal1~7_combout $end
$var wire 1 ^! inst8|Equal1~0_combout $end
$var wire 1 _! inst8|Equal1~3_combout $end
$var wire 1 `! inst8|Equal1~1_combout $end
$var wire 1 a! inst8|Equal1~2_combout $end
$var wire 1 b! inst8|Equal1~4_combout $end
$var wire 1 c! inst8|Equal1~10 $end
$var wire 1 d! inst8|style_counter[7]~64 $end
$var wire 1 e! inst8|Equal1~8_combout $end
$var wire 1 f! inst8|change_style~regout $end
$var wire 1 g! inst8|Output_style~regout $end
$var wire 1 h! rx~combout $end
$var wire 1 i! inst2|Selector5~0_combout $end
$var wire 1 j! inst2|Equal0~0_combout $end
$var wire 1 k! inst2|pcap~regout $end
$var wire 1 l! inst2|data_low~regout $end
$var wire 1 m! inst2|CS.idle~regout $end
$var wire 1 n! inst2|ncount~2_combout $end
$var wire 1 o! inst2|ncount[0]~4_combout $end
$var wire 1 p! inst2|Add1~0_combout $end
$var wire 1 q! inst2|ncap~regout $end
$var wire 1 r! inst2|CS.stop~regout $end
$var wire 1 s! inst2|Selector6~0_combout $end
$var wire 1 t! inst2|Selector6~1_combout $end
$var wire 1 u! inst2|start_cap~regout $end
$var wire 1 v! inst2|CS.start~regout $end
$var wire 1 w! inst2|CS.data~regout $end
$var wire 1 x! inst2|shift~0_combout $end
$var wire 1 y! inst2|shift_out~0_combout $end
$var wire 1 z! inst3|Mux14~0_combout $end
$var wire 1 {! inst3|Mux14~2_combout $end
$var wire 1 |! inst7|Mux4~0 $end
$var wire 1 }! inst8|Mux3~0_combout $end
$var wire 1 ~! inst3|Mux2~0_combout $end
$var wire 1 !" inst4|Mux4~0 $end
$var wire 1 "" inst3|Mux14~1_combout $end
$var wire 1 #" inst8|Equal2~0_combout $end
$var wire 1 $" inst5|Mux4~0 $end
$var wire 1 %" inst8|Mux4~0 $end
$var wire 1 &" inst6|Mux4~0 $end
$var wire 1 '" inst8|Mux4~1 $end
$var wire 1 (" inst7|Mux4~2_combout $end
$var wire 1 )" inst4|Mux4~2_combout $end
$var wire 1 *" inst5|Mux4~2_combout $end
$var wire 1 +" inst8|Mux12~0 $end
$var wire 1 ," inst6|Mux4~2_combout $end
$var wire 1 -" inst8|Mux12~1 $end
$var wire 1 ." inst7|Mux12~0_combout $end
$var wire 1 /" inst4|Mux12~0_combout $end
$var wire 1 0" inst6|Mux12~0_combout $end
$var wire 1 1" inst8|DataOut~18 $end
$var wire 1 2" inst5|Mux12~0_combout $end
$var wire 1 3" inst8|DataOut~19 $end
$var wire 1 4" inst7|Mux4~1 $end
$var wire 1 5" inst4|Mux4~1 $end
$var wire 1 6" inst6|Mux4~1 $end
$var wire 1 7" inst8|Mux8~0 $end
$var wire 1 8" inst5|Mux4~1 $end
$var wire 1 9" inst8|Mux8~1 $end
$var wire 1 :" inst1|Mux5~0_combout $end
$var wire 1 ;" inst8|Mux13~0 $end
$var wire 1 <" inst8|Mux13~1 $end
$var wire 1 =" inst8|DataOut~13 $end
$var wire 1 >" inst8|DataOut~14 $end
$var wire 1 ?" inst8|Mux9~0 $end
$var wire 1 @" inst8|Mux9~1 $end
$var wire 1 A" inst8|Mux5~0 $end
$var wire 1 B" inst8|Mux5~1 $end
$var wire 1 C" inst1|Mux6~0_combout $end
$var wire 1 D" inst8|Mux6~0 $end
$var wire 1 E" inst8|Mux6~1 $end
$var wire 1 F" inst8|Mux14~0 $end
$var wire 1 G" inst8|Mux14~1 $end
$var wire 1 H" inst8|DataOut~8 $end
$var wire 1 I" inst8|DataOut~9 $end
$var wire 1 J" inst8|Mux10~0 $end
$var wire 1 K" inst8|Mux10~1 $end
$var wire 1 L" inst1|Mux7~0_combout $end
$var wire 1 M" inst8|Mux11~0 $end
$var wire 1 N" inst8|Mux11~1 $end
$var wire 1 O" inst8|DataOut~24 $end
$var wire 1 P" inst8|DataOut~25 $end
$var wire 1 Q" inst8|Mux3~1 $end
$var wire 1 R" inst8|Mux3~2 $end
$var wire 1 S" inst8|Mux7~0 $end
$var wire 1 T" inst8|Mux7~1 $end
$var wire 1 U" inst1|Mux4~0_combout $end
$var wire 1 V" inst7|DataOut [15] $end
$var wire 1 W" inst7|DataOut [14] $end
$var wire 1 X" inst7|DataOut [13] $end
$var wire 1 Y" inst7|DataOut [12] $end
$var wire 1 Z" inst7|DataOut [11] $end
$var wire 1 [" inst7|DataOut [10] $end
$var wire 1 \" inst7|DataOut [9] $end
$var wire 1 ]" inst7|DataOut [8] $end
$var wire 1 ^" inst7|DataOut [7] $end
$var wire 1 _" inst7|DataOut [6] $end
$var wire 1 `" inst7|DataOut [5] $end
$var wire 1 a" inst7|DataOut [4] $end
$var wire 1 b" inst7|DataOut [3] $end
$var wire 1 c" inst7|DataOut [2] $end
$var wire 1 d" inst7|DataOut [1] $end
$var wire 1 e" inst7|DataOut [0] $end
$var wire 1 f" inst6|DataOut [15] $end
$var wire 1 g" inst6|DataOut [14] $end
$var wire 1 h" inst6|DataOut [13] $end
$var wire 1 i" inst6|DataOut [12] $end
$var wire 1 j" inst6|DataOut [11] $end
$var wire 1 k" inst6|DataOut [10] $end
$var wire 1 l" inst6|DataOut [9] $end
$var wire 1 m" inst6|DataOut [8] $end
$var wire 1 n" inst6|DataOut [7] $end
$var wire 1 o" inst6|DataOut [6] $end
$var wire 1 p" inst6|DataOut [5] $end
$var wire 1 q" inst6|DataOut [4] $end
$var wire 1 r" inst6|DataOut [3] $end
$var wire 1 s" inst6|DataOut [2] $end
$var wire 1 t" inst6|DataOut [1] $end
$var wire 1 u" inst6|DataOut [0] $end
$var wire 1 v" inst4|DataOut [15] $end
$var wire 1 w" inst4|DataOut [14] $end
$var wire 1 x" inst4|DataOut [13] $end
$var wire 1 y" inst4|DataOut [12] $end
$var wire 1 z" inst4|DataOut [11] $end
$var wire 1 {" inst4|DataOut [10] $end
$var wire 1 |" inst4|DataOut [9] $end
$var wire 1 }" inst4|DataOut [8] $end
$var wire 1 ~" inst4|DataOut [7] $end
$var wire 1 !# inst4|DataOut [6] $end
$var wire 1 "# inst4|DataOut [5] $end
$var wire 1 ## inst4|DataOut [4] $end
$var wire 1 $# inst4|DataOut [3] $end
$var wire 1 %# inst4|DataOut [2] $end
$var wire 1 &# inst4|DataOut [1] $end
$var wire 1 '# inst4|DataOut [0] $end
$var wire 1 (# inst1|ledsegment_out [6] $end
$var wire 1 )# inst1|ledsegment_out [5] $end
$var wire 1 *# inst1|ledsegment_out [4] $end
$var wire 1 +# inst1|ledsegment_out [3] $end
$var wire 1 ,# inst1|ledsegment_out [2] $end
$var wire 1 -# inst1|ledsegment_out [1] $end
$var wire 1 .# inst1|ledsegment_out [0] $end
$var wire 1 /# inst1|ledsegment [6] $end
$var wire 1 0# inst1|ledsegment [5] $end
$var wire 1 1# inst1|ledsegment [4] $end
$var wire 1 2# inst1|ledsegment [3] $end
$var wire 1 3# inst1|ledsegment [2] $end
$var wire 1 4# inst1|ledsegment [1] $end
$var wire 1 5# inst1|ledsegment [0] $end
$var wire 1 6# inst1|led_select_out [3] $end
$var wire 1 7# inst1|led_select_out [2] $end
$var wire 1 8# inst1|led_select_out [1] $end
$var wire 1 9# inst1|led_select_out [0] $end
$var wire 1 :# inst1|counter [1] $end
$var wire 1 ;# inst1|counter [0] $end
$var wire 1 <# inst1|bcd [3] $end
$var wire 1 =# inst1|bcd [2] $end
$var wire 1 ># inst1|bcd [1] $end
$var wire 1 ?# inst1|bcd [0] $end
$var wire 1 @# inst8|style_counter [31] $end
$var wire 1 A# inst8|style_counter [30] $end
$var wire 1 B# inst8|style_counter [29] $end
$var wire 1 C# inst8|style_counter [28] $end
$var wire 1 D# inst8|style_counter [27] $end
$var wire 1 E# inst8|style_counter [26] $end
$var wire 1 F# inst8|style_counter [25] $end
$var wire 1 G# inst8|style_counter [24] $end
$var wire 1 H# inst8|style_counter [23] $end
$var wire 1 I# inst8|style_counter [22] $end
$var wire 1 J# inst8|style_counter [21] $end
$var wire 1 K# inst8|style_counter [20] $end
$var wire 1 L# inst8|style_counter [19] $end
$var wire 1 M# inst8|style_counter [18] $end
$var wire 1 N# inst8|style_counter [17] $end
$var wire 1 O# inst8|style_counter [16] $end
$var wire 1 P# inst8|style_counter [15] $end
$var wire 1 Q# inst8|style_counter [14] $end
$var wire 1 R# inst8|style_counter [13] $end
$var wire 1 S# inst8|style_counter [12] $end
$var wire 1 T# inst8|style_counter [11] $end
$var wire 1 U# inst8|style_counter [10] $end
$var wire 1 V# inst8|style_counter [9] $end
$var wire 1 W# inst8|style_counter [8] $end
$var wire 1 X# inst8|style_counter [7] $end
$var wire 1 Y# inst8|style_counter [6] $end
$var wire 1 Z# inst8|style_counter [5] $end
$var wire 1 [# inst8|style_counter [4] $end
$var wire 1 \# inst8|style_counter [3] $end
$var wire 1 ]# inst8|style_counter [2] $end
$var wire 1 ^# inst8|style_counter [1] $end
$var wire 1 _# inst8|style_counter [0] $end
$var wire 1 `# inst3|DataOutCurrent [5] $end
$var wire 1 a# inst3|DataOutCurrent [4] $end
$var wire 1 b# inst3|DataOutCurrent [3] $end
$var wire 1 c# inst3|DataOutCurrent [2] $end
$var wire 1 d# inst3|DataOutCurrent [1] $end
$var wire 1 e# inst3|DataOutCurrent [0] $end
$var wire 1 f# inst8|polling_counter [31] $end
$var wire 1 g# inst8|polling_counter [30] $end
$var wire 1 h# inst8|polling_counter [29] $end
$var wire 1 i# inst8|polling_counter [28] $end
$var wire 1 j# inst8|polling_counter [27] $end
$var wire 1 k# inst8|polling_counter [26] $end
$var wire 1 l# inst8|polling_counter [25] $end
$var wire 1 m# inst8|polling_counter [24] $end
$var wire 1 n# inst8|polling_counter [23] $end
$var wire 1 o# inst8|polling_counter [22] $end
$var wire 1 p# inst8|polling_counter [21] $end
$var wire 1 q# inst8|polling_counter [20] $end
$var wire 1 r# inst8|polling_counter [19] $end
$var wire 1 s# inst8|polling_counter [18] $end
$var wire 1 t# inst8|polling_counter [17] $end
$var wire 1 u# inst8|polling_counter [16] $end
$var wire 1 v# inst8|polling_counter [15] $end
$var wire 1 w# inst8|polling_counter [14] $end
$var wire 1 x# inst8|polling_counter [13] $end
$var wire 1 y# inst8|polling_counter [12] $end
$var wire 1 z# inst8|polling_counter [11] $end
$var wire 1 {# inst8|polling_counter [10] $end
$var wire 1 |# inst8|polling_counter [9] $end
$var wire 1 }# inst8|polling_counter [8] $end
$var wire 1 ~# inst8|polling_counter [7] $end
$var wire 1 !$ inst8|polling_counter [6] $end
$var wire 1 "$ inst8|polling_counter [5] $end
$var wire 1 #$ inst8|polling_counter [4] $end
$var wire 1 $$ inst8|polling_counter [3] $end
$var wire 1 %$ inst8|polling_counter [2] $end
$var wire 1 &$ inst8|polling_counter [1] $end
$var wire 1 '$ inst8|polling_counter [0] $end
$var wire 1 ($ inst2|shift_reg [7] $end
$var wire 1 )$ inst2|shift_reg [6] $end
$var wire 1 *$ inst2|shift_reg [5] $end
$var wire 1 +$ inst2|shift_reg [4] $end
$var wire 1 ,$ inst2|shift_reg [3] $end
$var wire 1 -$ inst2|shift_reg [2] $end
$var wire 1 .$ inst2|shift_reg [1] $end
$var wire 1 /$ inst2|shift_reg [0] $end
$var wire 1 0$ inst3|DataOutVoltage [5] $end
$var wire 1 1$ inst3|DataOutVoltage [4] $end
$var wire 1 2$ inst3|DataOutVoltage [3] $end
$var wire 1 3$ inst3|DataOutVoltage [2] $end
$var wire 1 4$ inst3|DataOutVoltage [1] $end
$var wire 1 5$ inst3|DataOutVoltage [0] $end
$var wire 1 6$ inst2|ncount [3] $end
$var wire 1 7$ inst2|ncount [2] $end
$var wire 1 8$ inst2|ncount [1] $end
$var wire 1 9$ inst2|ncount [0] $end
$var wire 1 :$ inst2|pcount [3] $end
$var wire 1 ;$ inst2|pcount [2] $end
$var wire 1 <$ inst2|pcount [1] $end
$var wire 1 =$ inst2|pcount [0] $end
$var wire 1 >$ inst8|DataOut [15] $end
$var wire 1 ?$ inst8|DataOut [14] $end
$var wire 1 @$ inst8|DataOut [13] $end
$var wire 1 A$ inst8|DataOut [12] $end
$var wire 1 B$ inst8|DataOut [11] $end
$var wire 1 C$ inst8|DataOut [10] $end
$var wire 1 D$ inst8|DataOut [9] $end
$var wire 1 E$ inst8|DataOut [8] $end
$var wire 1 F$ inst8|DataOut [7] $end
$var wire 1 G$ inst8|DataOut [6] $end
$var wire 1 H$ inst8|DataOut [5] $end
$var wire 1 I$ inst8|DataOut [4] $end
$var wire 1 J$ inst8|DataOut [3] $end
$var wire 1 K$ inst8|DataOut [2] $end
$var wire 1 L$ inst8|DataOut [1] $end
$var wire 1 M$ inst8|DataOut [0] $end
$var wire 1 N$ inst2|shift_reg_out [7] $end
$var wire 1 O$ inst2|shift_reg_out [6] $end
$var wire 1 P$ inst2|shift_reg_out [5] $end
$var wire 1 Q$ inst2|shift_reg_out [4] $end
$var wire 1 R$ inst2|shift_reg_out [3] $end
$var wire 1 S$ inst2|shift_reg_out [2] $end
$var wire 1 T$ inst2|shift_reg_out [1] $end
$var wire 1 U$ inst2|shift_reg_out [0] $end
$var wire 1 V$ inst3|DataOutExtra [5] $end
$var wire 1 W$ inst3|DataOutExtra [4] $end
$var wire 1 X$ inst3|DataOutExtra [3] $end
$var wire 1 Y$ inst3|DataOutExtra [2] $end
$var wire 1 Z$ inst3|DataOutExtra [1] $end
$var wire 1 [$ inst3|DataOutExtra [0] $end
$var wire 1 \$ inst5|DataOut [15] $end
$var wire 1 ]$ inst5|DataOut [14] $end
$var wire 1 ^$ inst5|DataOut [13] $end
$var wire 1 _$ inst5|DataOut [12] $end
$var wire 1 `$ inst5|DataOut [11] $end
$var wire 1 a$ inst5|DataOut [10] $end
$var wire 1 b$ inst5|DataOut [9] $end
$var wire 1 c$ inst5|DataOut [8] $end
$var wire 1 d$ inst5|DataOut [7] $end
$var wire 1 e$ inst5|DataOut [6] $end
$var wire 1 f$ inst5|DataOut [5] $end
$var wire 1 g$ inst5|DataOut [4] $end
$var wire 1 h$ inst5|DataOut [3] $end
$var wire 1 i$ inst5|DataOut [2] $end
$var wire 1 j$ inst5|DataOut [1] $end
$var wire 1 k$ inst5|DataOut [0] $end
$var wire 1 l$ inst3|DataOutPower [5] $end
$var wire 1 m$ inst3|DataOutPower [4] $end
$var wire 1 n$ inst3|DataOutPower [3] $end
$var wire 1 o$ inst3|DataOutPower [2] $end
$var wire 1 p$ inst3|DataOutPower [1] $end
$var wire 1 q$ inst3|DataOutPower [0] $end
$var wire 1 r$ inst8|Output_select [2] $end
$var wire 1 s$ inst8|Output_select [1] $end
$var wire 1 t$ inst8|Output_select [0] $end
$upscope $end
$upscope $end
$enddefinitions $end
#0
$dumpvars
0!
x"
x#
1$
0+
0*
0)
0(
0'
0&
0%
1/
0.
0-
0,
00
11
x2
13
14
15
06
07
08
x9
0:
0;
1<
1=
0>
0?
1@
1A
0B
0C
1D
0E
0F
1G
1H
0I
0J
1K
1L
0M
1N
1O
0P
0Q
1R
1S
0T
0U
1V
0W
0X
1Y
1Z
0[
0\
1]
1^
0_
1`
1a
0b
0c
1d
1e
0f
0g
1h
0i
0j
1k
1l
0m
0n
1o
1p
0q
1r
0s
1t
0u
0v
1w
0x
0y
0z
0{
1|
1}
0~
x!!
0"!
0#!
1$!
1%!
0&!
0'!
1(!
1)!
0*!
0+!
1,!
0-!
0.!
1/!
10!
01!
02!
13!
14!
05!
16!
17!
08!
09!
1:!
1;!
0<!
0=!
1>!
0?!
0@!
1A!
1B!
0C!
0D!
1E!
1F!
0G!
1H!
1I!
0J!
0K!
1L!
1M!
0N!
0O!
1P!
0Q!
0R!
1S!
1T!
0U!
0V!
1W!
1X!
0Y!
1Z!
1[!
0\!
0]!
1^!
0_!
0`!
0a!
0b!
0c!
1d!
1e!
0f!
0g!
1h!
0i!
0j!
0k!
0l!
0m!
1n!
0o!
0p!
0q!
0r!
0s!
0t!
0u!
0v!
0w!
0x!
1y!
xz!
x{!
0|!
0}!
x~!
0!"
x""
0#"
0$"
0%"
0&"
0'"
0("
0)"
0*"
0+"
0,"
0-"
1."
1/"
10"
01"
12"
03"
04"
05"
06"
07"
08"
09"
0:"
0;"
0<"
0="
0>"
0?"
0@"
0A"
0B"
0C"
0D"
0E"
0F"
0G"
0H"
0I"
0J"
0K"
0L"
0M"
0N"
0O"
0P"
0Q"
0R"
0S"
0T"
0U"
0e"
0d"
0c"
0b"
0a"
0`"
0_"
0^"
0]"
0\"
0["
0Z"
0Y"
0X"
0W"
0V"
0u"
0t"
0s"
0r"
0q"
0p"
0o"
0n"
0m"
0l"
0k"
0j"
0i"
0h"
0g"
0f"
0'#
0&#
0%#
0$#
0##
0"#
0!#
0~"
0}"
0|"
0{"
0z"
0y"
0x"
0w"
0v"
0.#
0-#
0,#
0+#
0*#
0)#
0(#
05#
04#
03#
02#
01#
00#
0/#
09#
08#
07#
06#
0;#
0:#
0?#
0>#
0=#
0<#
0_#
0^#
0]#
0\#
0[#
0Z#
0Y#
0X#
0W#
0V#
0U#
0T#
0S#
0R#
0Q#
0P#
0O#
0N#
0M#
0L#
0K#
0J#
0I#
0H#
0G#
0F#
0E#
0D#
0C#
0B#
0A#
0@#
0e#
0d#
0c#
0b#
0a#
0`#
0'$
0&$
0%$
0$$
0#$
0"$
0!$
0~#
0}#
0|#
0{#
0z#
0y#
0x#
0w#
0v#
0u#
0t#
0s#
0r#
0q#
0p#
0o#
0n#
0m#
0l#
0k#
0j#
0i#
0h#
0g#
0f#
0/$
0.$
0-$
0,$
0+$
0*$
0)$
0($
05$
04$
03$
02$
01$
00$
09$
08$
07$
06$
0=$
0<$
0;$
0:$
0M$
0L$
0K$
0J$
0I$
0H$
0G$
0F$
0E$
0D$
0C$
0B$
0A$
0@$
0?$
0>$
xU$
xT$
xS$
xR$
xQ$
xP$
xO$
xN$
0[$
0Z$
0Y$
0X$
0W$
0V$
0k$
0j$
0i$
0h$
0g$
0f$
0e$
0d$
0c$
0b$
0a$
0`$
0_$
0^$
0]$
0\$
0q$
0p$
0o$
0n$
0m$
0l$
0t$
0s$
0r$
$end
#2500
1!
18
19#
16#
15#
14#
13#
12#
11#
10#
1>$
1A$
1@$
1;#
x"!
x:
1,
0/
#5000
0!
08
#7500
1!
18
17#
06#
1.#
1-#
1,#
1+#
1*#
1)#
1:#
0;#
x7
x6
1C"
xd!
x|
1-
0,
1+
1*
1)
1(
1'
1&
#10000
0!
08
#12500
1!
18
18#
07#
1<#
1?#
1>#
1;#
1_#
1'$
1U"
1L"
1:"
0^!
1#!
0w
1;
1.
0-
#15000
0!
08
#17500
1!
18
09#
08#
04#
03#
0<#
0?#
0>#
0:#
0;#
1^#
0_#
1&$
0'$
0U"
0L"
0C"
0:"
0%!
0#!
0=
0;
0.
1/
#20000
0!
08
#22500
1!
18
19#
16#
0-#
14#
0,#
13#
1;#
1_#
1'$
1#!
1;
1,
0*
0)
0/
#25000
0!
08
#27500
1!
18
17#
06#
1-#
1,#
1:#
0;#
1]#
0^#
0_#
1%$
0&$
0'$
1C"
1'!
1%!
0#!
1?
1=
0;
1-
0,
1*
1)
0'!
0?
#30000
0!
08
#32500
1!
18
18#
07#
1<#
1?#
1>#
1;#
1_#
1'$
1U"
1L"
1:"
1#!
1;
1.
0-
#35000
0!
08
#37500
1!
18
09#
08#
04#
03#
0<#
0?#
0>#
0:#
0;#
1^#
0_#
1&$
0'$
0U"
0L"
0C"
0:"
0%!
0#!
0=
0;
0.
1/
1'!
1?
#40000
0!
08
#42500
1!
18
19#
16#
0-#
14#
0,#
13#
1;#
1_#
1'$
1#!
1;
1,
0*
0)
0/
#45000
0!
08
#47500
1!
18
17#
06#
1-#
1,#
1:#
0;#
1\#
0]#
0^#
0_#
1$$
0%$
0&$
0'$
1C"
0)!
0'!
1%!
0#!
0A
0?
1=
0;
1-
0,
1*
1)
1)!
1A
#50000
0!
08
#52500
1!
18
18#
07#
1<#
1?#
1>#
1;#
1_#
1'$
1U"
1L"
1:"
1#!
1;
1.
0-
#55000
0!
08
#57500
1!
18
09#
08#
04#
03#
0<#
0?#
0>#
0:#
0;#
1^#
0_#
1&$
0'$
0U"
0L"
0C"
0:"
0%!
0#!
0=
0;
0.
1/
#60000
0!
08
#62500
1!
18
19#
16#
0-#
14#
0,#
13#
1;#
1_#
1'$
1#!
1;
1,
0*
0)
0/
#65000
0!
08
#67500
1!
18
17#
06#
1-#
1,#
1:#
0;#
1]#
0^#
0_#
1%$
0&$
0'$
1C"
1'!
1%!
0#!
1?
1=
0;
1-
0,
1*
1)
0)!
0'!
0A
0?
1)!
1A
#70000
0!
08
#72500
1!
18
18#
07#
1<#
1?#
1>#
1;#
1_#
1'$
1U"
1L"
1:"
1#!
1;
1.
0-
#75000
0!
08
#77500
1!
18
09#
08#
04#
03#
0<#
0?#
0>#
0:#
0;#
1^#
0_#
1&$
0'$
0U"
0L"
0C"
0:"
0%!
0#!
0=
0;
0.
1/
1'!
1?
0)!
0A
#80000
0$
0!
0h!
08
#82500
1!
18
19#
16#
0-#
14#
0,#
13#
1;#
1l!
1_#
1'$
0n!
1#!
1;
1,
0*
0)
0/
1o!
#85000
0!
08
